{
  "en": [
    {
      "Annual": "Occurring once every year",
      "Monthly": "Occurring once a month",
      "Fortnightly": "Occurring every two weeks",
      "Weekly": "Occurring every week",
      "Gross Income": "An individual’s total pay from his or her employer before taxes or other deductions",
      "Net Income": "An individual's earnings after subtracting taxes and other deductions from gross income",
      "Taxable Income": "The income an individual is required to pay tax on",
      "Age Pension": "A regular amount of money that people receive from the government when they have retired from work",
      "Disability Pension": "An income support payment for people who are unable to work due to permanent physical, intellectual or psychiatric impairment",
      "Parenting Payment": "An income support payment that provides financial assistance to principal carers with parenting responsibilities for a young child and provides them with incentives to increase workforce participation and reduce dependency on income support",
      "Widows Pension": "A payment from the government of a country to a person whose spouse has died",
      "Survivors Pension": "A benefit payable to a low-income, unremarried surviving spouse or unmarried children of a deceased Veteran with wartime service"
    }
  ],
  "de": [
    {
      "Annual": "jährlich / pro Jahr / im Jahr",
      "Monthly": "monatlich / pro Monat / im Monat",
      "Fortnightly": "vierzehntägig / zweiwöchentlich / alle zwei Wochen",
      "Weekly": "wöchentlich / pro Woche",
      "Gross Income": "​Bruttoeinkommen / Bruttoverdienst",
      "Net Income": "Nettoeinkommen / Nettoverdienst",
      "Taxable Income": "steuerpflichtiger Betrag / zu versteuernder Betrag",
      "Age Pension": "Altersrente",
      "Parenting Payment": "Erwerbsunfähigkeitsrente",
      "Invalid Pension": "​Invalidenrente",
      "Widows Pension": "​Witwenrente",
      "Survivors Pension": "​Hinterbliebenenrente"
    },
    {
      "Annual": "Erscheint einmal im Jahr",
      "Monthly": "Erscheint einmal im Monat",
      "Fortnightly": "Tritt alle zwei Wochen auf",
      "Weekly": "Kommt jede Woche vor",
      "Gross Income": "Der Gesamtlohn einer Person von ihrem Arbeitgeber vor Steuern oder anderen Abzügen",
      "Net Income": "Das Einkommen einer Person nach Abzug von Steuern und anderen Abzügen vom Bruttoeinkommen",
      "Taxable Income": "Das Einkommen, auf das eine Person Steuern zahlen muss",
      "Age Pension": "Ein regelmäßiger Geldbetrag, den Menschen von der Regierung erhalten, wenn sie sich von der Arbeit zurückgezogen haben",
      "Disability Pension": "Eine Einkommensunterstützungszahlung für Personen, die aufgrund einer dauerhaften körperlichen, geistigen oder psychiatrischen Beeinträchtigung arbeitsunfähig sind",
      "Parenting Payment": "Eine Einkommensunterstützungszahlung, die Hauptbetreuern mit Erziehungspflichten für ein kleines Kind finanzielle Unterstützung bietet und ihnen Anreize bietet, die Erwerbsbeteiligung zu erhöhen und die Abhängigkeit von Einkommensunterstützung zu verringern",
      "Widows Pension": "Eine Zahlung der Regierung eines Landes an eine Person, deren Ehepartner verstorben ist",
      "Survivors Pension": "Eine Leistung, die an einen einkommensschwachen, unverheirateten überlebenden Ehepartner oder unverheiratete Kinder eines verstorbenen Veteranen mit Kriegsdienst gezahlt wird"
    }
  ],
  "vi": [
    {
      "Annual": "Hàng năm",
      "Monthly": "Hàng tháng",
      "Fortnightly": "Mỗi Hai Tuần",
      "Weekly": "Hng Tuần",
      "Gross Income": "Lợi Tức Chưa Trừ Thuế",
      "Net Income": "Lợi Tức Trừ Thuế Rồi",
      "Taxable Income": "​Số Tiền Chịu Thuế",
      "Age Pension": "Hưu Bổng",
      "Disability Pension": "Cấp Dưỡng Khiếm Tật",
      "Parenting Payment": "Cấp Dưỡng Mất Sức Lao Động",
      "Widows Pension": "Cấp Dưỡng Quả Phụ",
      "Survivors Pension": "Cấp Dưỡng Người Sống"
    },
    {
      "Annual": "Xảy ra một lần mỗi năm",
      "Monthly": "Xảy ra mỗi tháng một lần",
      "Fortnightly": "Xảy ra hai tuần một lần",
      "Weekly": "Xảy ra hàng tuần",
      "Gross Income": "Tổng tiền lương của một cá nhân từ người chủ của mình trước thuế hoặc các khoản khấu trừ khác",
      "Net Income": "Thu nhập của một cá nhân sau khi trừ thuế và các khoản khấu trừ khác khỏi tổng thu nhập",
      "Taxable Income": "Thu nhập mà một cá nhân phải nộp thuế",
      "Age Pension": "Khoản tiền cung cấp đều đặn từ chính phủ cho những người về hưu",
      "Disability Pension": "Khoản thanh toán hỗ trợ thu nhập cho những người không thể làm việc do suy giảm vĩnh viễn về thể chất, trí tuệ hoặc tâm thần",
      "Parenting Payment": "Khoản hỗ trợ tài chính cho người chăm sóc chính, với trách nhiệm nuôi dạy con nhỏ và khuyến khích họ tham gia lao động và giảm sự phụ thuộc vào hỗ trợ thu nhập",
      "Widows Pension": "Khoản thanh toán từ chính phủ của một quốc gia cho người có vợ / chồng đã chết",
      "Survivors Pension": "Quyền lợi trả cho vợ / chồng còn sống chưa kết hôn có thu nhập thấp hoặc con cái chưa kết hôn của một Cựu chiến binh đã qua đời phục vụ trong thời chiến"
    }
  ]
}
